{
  "configVersion": 2,
  "packages": [
    {
      "name": "animations",
      "rootUri": "file:///C:/Users/mikey/Documents/flutter/.pub-cache/hosted/pub.dartlang.org/animations-1.1.2",
      "packageUri": "lib/",
      "languageVersion": "2.2"
    },
    {
      "name": "async",
      "rootUri": "file:///C:/Users/mikey/Documents/flutter/.pub-cache/hosted/pub.dartlang.org/async-2.5.0-nullsafety.1",
      "packageUri": "lib/",
      "languageVersion": "2.10"
    },
    {
      "name": "boolean_selector",
      "rootUri": "file:///C:/Users/mikey/Documents/flutter/.pub-cache/hosted/pub.dartlang.org/boolean_selector-2.1.0-nullsafety.1",
      "packageUri": "lib/",
      "languageVersion": "2.10"
    },
    {
      "name": "cached_network_image",
      "rootUri": "file:///C:/Users/mikey/Documents/flutter/.pub-cache/hosted/pub.dartlang.org/cached_network_image-2.3.3",
      "packageUri": "lib/",
      "languageVersion": "2.9"
    },
    {
      "name": "characters",
      "rootUri": "file:///C:/Users/mikey/Documents/flutter/.pub-cache/hosted/pub.dartlang.org/characters-1.1.0-nullsafety.3",
      "packageUri": "lib/",
      "languageVersion": "2.10"
    },
    {
      "name": "charcode",
      "rootUri": "file:///C:/Users/mikey/Documents/flutter/.pub-cache/hosted/pub.dartlang.org/charcode-1.2.0-nullsafety.1",
      "packageUri": "lib/",
      "languageVersion": "2.10"
    },
    {
      "name": "clock",
      "rootUri": "file:///C:/Users/mikey/Documents/flutter/.pub-cache/hosted/pub.dartlang.org/clock-1.1.0-nullsafety.1",
      "packageUri": "lib/",
      "languageVersion": "2.10"
    },
    {
      "name": "collection",
      "rootUri": "file:///C:/Users/mikey/Documents/flutter/.pub-cache/hosted/pub.dartlang.org/collection-1.15.0-nullsafety.3",
      "packageUri": "lib/",
      "languageVersion": "2.10"
    },
    {
      "name": "convert",
      "rootUri": "file:///C:/Users/mikey/Documents/flutter/.pub-cache/hosted/pub.dartlang.org/convert-2.1.1",
      "packageUri": "lib/",
      "languageVersion": "1.17"
    },
    {
      "name": "crypto",
      "rootUri": "file:///C:/Users/mikey/Documents/flutter/.pub-cache/hosted/pub.dartlang.org/crypto-2.1.5",
      "packageUri": "lib/",
      "languageVersion": "2.3"
    },
    {
      "name": "cupertino_icons",
      "rootUri": "file:///C:/Users/mikey/Documents/flutter/.pub-cache/hosted/pub.dartlang.org/cupertino_icons-1.0.0",
      "packageUri": "lib/",
      "languageVersion": "2.0"
    },
    {
      "name": "fake_async",
      "rootUri": "file:///C:/Users/mikey/Documents/flutter/.pub-cache/hosted/pub.dartlang.org/fake_async-1.2.0-nullsafety.1",
      "packageUri": "lib/",
      "languageVersion": "2.10"
    },
    {
      "name": "ffi",
      "rootUri": "file:///C:/Users/mikey/Documents/flutter/.pub-cache/hosted/pub.dartlang.org/ffi-0.1.3",
      "packageUri": "lib/",
      "languageVersion": "2.6"
    },
    {
      "name": "file",
      "rootUri": "file:///C:/Users/mikey/Documents/flutter/.pub-cache/hosted/pub.dartlang.org/file-5.2.1",
      "packageUri": "lib/",
      "languageVersion": "2.2"
    },
    {
      "name": "flutter",
      "rootUri": "file:///C:/Users/mikey/Documents/flutter/packages/flutter",
      "packageUri": "lib/",
      "languageVersion": "2.10"
    },
    {
      "name": "flutter_blurhash",
      "rootUri": "file:///C:/Users/mikey/Documents/flutter/.pub-cache/hosted/pub.dartlang.org/flutter_blurhash-0.5.0",
      "packageUri": "lib/",
      "languageVersion": "2.4"
    },
    {
      "name": "flutter_cache_manager",
      "rootUri": "file:///C:/Users/mikey/Documents/flutter/.pub-cache/hosted/pub.dartlang.org/flutter_cache_manager-2.0.0",
      "packageUri": "lib/",
      "languageVersion": "2.6"
    },
    {
      "name": "flutter_plugin_android_lifecycle",
      "rootUri": "file:///C:/Users/mikey/Documents/flutter/.pub-cache/hosted/pub.dartlang.org/flutter_plugin_android_lifecycle-1.0.11",
      "packageUri": "lib/",
      "languageVersion": "2.1"
    },
    {
      "name": "flutter_test",
      "rootUri": "file:///C:/Users/mikey/Documents/flutter/packages/flutter_test",
      "packageUri": "lib/",
      "languageVersion": "2.2"
    },
    {
      "name": "flutter_web_plugins",
      "rootUri": "file:///C:/Users/mikey/Documents/flutter/packages/flutter_web_plugins",
      "packageUri": "lib/",
      "languageVersion": "2.0"
    },
    {
      "name": "http",
      "rootUri": "file:///C:/Users/mikey/Documents/flutter/.pub-cache/hosted/pub.dartlang.org/http-0.12.2",
      "packageUri": "lib/",
      "languageVersion": "2.4"
    },
    {
      "name": "http_parser",
      "rootUri": "file:///C:/Users/mikey/Documents/flutter/.pub-cache/hosted/pub.dartlang.org/http_parser-3.1.4",
      "packageUri": "lib/",
      "languageVersion": "2.3"
    },
    {
      "name": "image_picker",
      "rootUri": "file:///C:/Users/mikey/Documents/flutter/.pub-cache/hosted/pub.dartlang.org/image_picker-0.6.7+14",
      "packageUri": "lib/",
      "languageVersion": "2.1"
    },
    {
      "name": "image_picker_platform_interface",
      "rootUri": "file:///C:/Users/mikey/Documents/flutter/.pub-cache/hosted/pub.dartlang.org/image_picker_platform_interface-1.1.1",
      "packageUri": "lib/",
      "languageVersion": "2.5"
    },
    {
      "name": "image_picker_saver",
      "rootUri": "file:///C:/Users/mikey/Documents/flutter/.pub-cache/hosted/pub.dartlang.org/image_picker_saver-0.3.0",
      "packageUri": "lib/",
      "languageVersion": "2.0"
    },
    {
      "name": "intl",
      "rootUri": "file:///C:/Users/mikey/Documents/flutter/.pub-cache/hosted/pub.dartlang.org/intl-0.16.1",
      "packageUri": "lib/",
      "languageVersion": "2.5"
    },
    {
      "name": "matcher",
      "rootUri": "file:///C:/Users/mikey/Documents/flutter/.pub-cache/hosted/pub.dartlang.org/matcher-0.12.10-nullsafety.1",
      "packageUri": "lib/",
      "languageVersion": "2.10"
    },
    {
      "name": "matrix_gesture_detector",
      "rootUri": "file:///C:/Users/mikey/Documents/flutter/.pub-cache/hosted/pub.dartlang.org/matrix_gesture_detector-0.1.0",
      "packageUri": "lib/",
      "languageVersion": "2.1"
    },
    {
      "name": "meta",
      "rootUri": "file:///C:/Users/mikey/Documents/flutter/.pub-cache/hosted/pub.dartlang.org/meta-1.3.0-nullsafety.3",
      "packageUri": "lib/",
      "languageVersion": "2.10"
    },
    {
      "name": "octo_image",
      "rootUri": "file:///C:/Users/mikey/Documents/flutter/.pub-cache/hosted/pub.dartlang.org/octo_image-0.3.0",
      "packageUri": "lib/",
      "languageVersion": "2.7"
    },
    {
      "name": "path",
      "rootUri": "file:///C:/Users/mikey/Documents/flutter/.pub-cache/hosted/pub.dartlang.org/path-1.8.0-nullsafety.1",
      "packageUri": "lib/",
      "languageVersion": "2.10"
    },
    {
      "name": "path_provider",
      "rootUri": "file:///C:/Users/mikey/Documents/flutter/.pub-cache/hosted/pub.dartlang.org/path_provider-1.6.24",
      "packageUri": "lib/",
      "languageVersion": "2.1"
    },
    {
      "name": "path_provider_linux",
      "rootUri": "file:///C:/Users/mikey/Documents/flutter/.pub-cache/hosted/pub.dartlang.org/path_provider_linux-0.0.1+2",
      "packageUri": "lib/",
      "languageVersion": "2.1"
    },
    {
      "name": "path_provider_macos",
      "rootUri": "file:///C:/Users/mikey/Documents/flutter/.pub-cache/hosted/pub.dartlang.org/path_provider_macos-0.0.4+6",
      "packageUri": "lib/",
      "languageVersion": "2.1"
    },
    {
      "name": "path_provider_platform_interface",
      "rootUri": "file:///C:/Users/mikey/Documents/flutter/.pub-cache/hosted/pub.dartlang.org/path_provider_platform_interface-1.0.4",
      "packageUri": "lib/",
      "languageVersion": "2.1"
    },
    {
      "name": "path_provider_windows",
      "rootUri": "file:///C:/Users/mikey/Documents/flutter/.pub-cache/hosted/pub.dartlang.org/path_provider_windows-0.0.4+3",
      "packageUri": "lib/",
      "languageVersion": "2.1"
    },
    {
      "name": "pedantic",
      "rootUri": "file:///C:/Users/mikey/Documents/flutter/.pub-cache/hosted/pub.dartlang.org/pedantic-1.9.2",
      "packageUri": "lib/",
      "languageVersion": "2.1"
    },
    {
      "name": "platform",
      "rootUri": "file:///C:/Users/mikey/Documents/flutter/.pub-cache/hosted/pub.dartlang.org/platform-2.2.1",
      "packageUri": "lib/",
      "languageVersion": "1.24"
    },
    {
      "name": "plugin_platform_interface",
      "rootUri": "file:///C:/Users/mikey/Documents/flutter/.pub-cache/hosted/pub.dartlang.org/plugin_platform_interface-1.0.3",
      "packageUri": "lib/",
      "languageVersion": "2.1"
    },
    {
      "name": "process",
      "rootUri": "file:///C:/Users/mikey/Documents/flutter/.pub-cache/hosted/pub.dartlang.org/process-3.0.13",
      "packageUri": "lib/",
      "languageVersion": "2.0"
    },
    {
      "name": "rxdart",
      "rootUri": "file:///C:/Users/mikey/Documents/flutter/.pub-cache/hosted/pub.dartlang.org/rxdart-0.24.1",
      "packageUri": "lib/",
      "languageVersion": "2.6"
    },
    {
      "name": "shared_preferences",
      "rootUri": "file:///C:/Users/mikey/Documents/flutter/.pub-cache/hosted/pub.dartlang.org/shared_preferences-0.5.12+4",
      "packageUri": "lib/",
      "languageVersion": "2.1"
    },
    {
      "name": "shared_preferences_linux",
      "rootUri": "file:///C:/Users/mikey/Documents/flutter/.pub-cache/hosted/pub.dartlang.org/shared_preferences_linux-0.0.2+4",
      "packageUri": "lib/",
      "languageVersion": "2.1"
    },
    {
      "name": "shared_preferences_macos",
      "rootUri": "file:///C:/Users/mikey/Documents/flutter/.pub-cache/hosted/pub.dartlang.org/shared_preferences_macos-0.0.1+11",
      "packageUri": "lib/",
      "languageVersion": "2.1"
    },
    {
      "name": "shared_preferences_platform_interface",
      "rootUri": "file:///C:/Users/mikey/Documents/flutter/.pub-cache/hosted/pub.dartlang.org/shared_preferences_platform_interface-1.0.4",
      "packageUri": "lib/",
      "languageVersion": "2.1"
    },
    {
      "name": "shared_preferences_web",
      "rootUri": "file:///C:/Users/mikey/Documents/flutter/.pub-cache/hosted/pub.dartlang.org/shared_preferences_web-0.1.2+7",
      "packageUri": "lib/",
      "languageVersion": "2.1"
    },
    {
      "name": "shared_preferences_windows",
      "rootUri": "file:///C:/Users/mikey/Documents/flutter/.pub-cache/hosted/pub.dartlang.org/shared_preferences_windows-0.0.1+3",
      "packageUri": "lib/",
      "languageVersion": "2.1"
    },
    {
      "name": "sky_engine",
      "rootUri": "file:///C:/Users/mikey/Documents/flutter/bin/cache/pkg/sky_engine",
      "packageUri": "lib/",
      "languageVersion": "1.11"
    },
    {
      "name": "source_span",
      "rootUri": "file:///C:/Users/mikey/Documents/flutter/.pub-cache/hosted/pub.dartlang.org/source_span-1.8.0-nullsafety.2",
      "packageUri": "lib/",
      "languageVersion": "2.10"
    },
    {
      "name": "sqflite",
      "rootUri": "file:///C:/Users/mikey/Documents/flutter/.pub-cache/hosted/pub.dartlang.org/sqflite-1.3.2+1",
      "packageUri": "lib/",
      "languageVersion": "2.10"
    },
    {
      "name": "sqflite_common",
      "rootUri": "file:///C:/Users/mikey/Documents/flutter/.pub-cache/hosted/pub.dartlang.org/sqflite_common-1.0.2+1",
      "packageUri": "lib/",
      "languageVersion": "2.7"
    },
    {
      "name": "stack_trace",
      "rootUri": "file:///C:/Users/mikey/Documents/flutter/.pub-cache/hosted/pub.dartlang.org/stack_trace-1.10.0-nullsafety.1",
      "packageUri": "lib/",
      "languageVersion": "2.10"
    },
    {
      "name": "stream_channel",
      "rootUri": "file:///C:/Users/mikey/Documents/flutter/.pub-cache/hosted/pub.dartlang.org/stream_channel-2.1.0-nullsafety.1",
      "packageUri": "lib/",
      "languageVersion": "2.10"
    },
    {
      "name": "string_scanner",
      "rootUri": "file:///C:/Users/mikey/Documents/flutter/.pub-cache/hosted/pub.dartlang.org/string_scanner-1.1.0-nullsafety.1",
      "packageUri": "lib/",
      "languageVersion": "2.10"
    },
    {
      "name": "synchronized",
      "rootUri": "file:///C:/Users/mikey/Documents/flutter/.pub-cache/hosted/pub.dartlang.org/synchronized-2.2.0+2",
      "packageUri": "lib/",
      "languageVersion": "2.8"
    },
    {
      "name": "term_glyph",
      "rootUri": "file:///C:/Users/mikey/Documents/flutter/.pub-cache/hosted/pub.dartlang.org/term_glyph-1.2.0-nullsafety.1",
      "packageUri": "lib/",
      "languageVersion": "2.10"
    },
    {
      "name": "test_api",
      "rootUri": "file:///C:/Users/mikey/Documents/flutter/.pub-cache/hosted/pub.dartlang.org/test_api-0.2.19-nullsafety.2",
      "packageUri": "lib/",
      "languageVersion": "2.10"
    },
    {
      "name": "typed_data",
      "rootUri": "file:///C:/Users/mikey/Documents/flutter/.pub-cache/hosted/pub.dartlang.org/typed_data-1.3.0-nullsafety.3",
      "packageUri": "lib/",
      "languageVersion": "2.10"
    },
    {
      "name": "uuid",
      "rootUri": "file:///C:/Users/mikey/Documents/flutter/.pub-cache/hosted/pub.dartlang.org/uuid-2.2.2",
      "packageUri": "lib/",
      "languageVersion": "2.2"
    },
    {
      "name": "vector_math",
      "rootUri": "file:///C:/Users/mikey/Documents/flutter/.pub-cache/hosted/pub.dartlang.org/vector_math-2.1.0-nullsafety.3",
      "packageUri": "lib/",
      "languageVersion": "2.10"
    },
    {
      "name": "win32",
      "rootUri": "file:///C:/Users/mikey/Documents/flutter/.pub-cache/hosted/pub.dartlang.org/win32-1.7.4",
      "packageUri": "lib/",
      "languageVersion": "2.7"
    },
    {
      "name": "xdg_directories",
      "rootUri": "file:///C:/Users/mikey/Documents/flutter/.pub-cache/hosted/pub.dartlang.org/xdg_directories-0.1.2",
      "packageUri": "lib/",
      "languageVersion": "2.3"
    },
    {
      "name": "lab6",
      "rootUri": "../",
      "packageUri": "lib/",
      "languageVersion": "2.8"
    }
  ],
  "generated": "2020-11-16T18:05:10.156063Z",
  "generator": "pub",
  "generatorVersion": "2.10.3"
}
